<svg xmlns="http://www.w3.org/2000/svg" width="10" height="10" viewBox="0 0 10 10">
  <path id="close" d="M-1851.19,9.8l0,0L-1855,5.933l-3.807,3.868h0a.694.694,0,0,1-.488.2.709.709,0,0,1-.7-.715.717.717,0,0,1,.2-.5h0L-1856.071,5l-3.684-3.742A.718.718,0,0,1-1860,.715a.709.709,0,0,1,.7-.715.692.692,0,0,1,.486.2l0,0,3.81,3.871L-1851.192.2h0a.694.694,0,0,1,.488-.2.709.709,0,0,1,.7.715.717.717,0,0,1-.2.5h0L-1853.929,5l3.684,3.743a.718.718,0,0,1,.245.541.709.709,0,0,1-.7.715A.693.693,0,0,1-1851.19,9.8Z" transform="translate(1860)" fill="#3a3b40"/>
</svg>
